@startuml doc-files/ipc01_2_design_automatic_sharing.png
actor User
participant "StartSharingUI\n" as ui
participant "StartSharingCtrl" as ctrl
participant "AutomaticUpdateCtrl" as asctrl
participant "UIController" as uicontroller
participant "NetworkService" as networkserv
participant "SelectionListener" as sl
participant "Cell" as cell
participant "AutomaticUpdateObject" as auo
participant "Broadcast" as tb
participant "NetworkInstance" as ni
participant "Connect" as tc
participant "Server" as ts

User -> ui : initiates
activate ui
User -> ui : insert name and port
create ctrl
ui -> ctrl : create()
ui -> ctrl : broadcastInstances()
activate ctrl
ctrl -> networkserv: findBroadcastInstances()
create tb
networkserv -> tb : create(NetworkData nd, SharingService serviceInstance)
activate tb
deactivate ctrl
tb -> tb : broadcast
create ni
loop
tb -> ni : create()
tb --> networkserv : addNetworkInstance(NetworkInstance)
end loop 
ui -> User : display instances
User -> ui : select instance
ui -> ctrl : connectToInstance(NetworkInstance)
ctrl -> networkserv : connectToIns(NetworkInstance)
ctrl -> asctrl: create()
asctrl -> networkserv: getInstance()
asctrl -> uicontroller: addSelectionListener()
networkserv -> tc : connect(NetworkInstance)
tc -> tc : createNewConnect(socket,netInstance)
tc -> ts : create(socket)
tc -> networkserv : setActiveConnect(true)
ui -> User : connected
User -> ui : select cells
ui -> ctrl : getSelectedCells()
ctrl -> networkserv : cellsToSend(obj)
networkserv -> ts : s.write(obj)
ui -> asctrl: getNewCellsFilled()
asctrl -> sl: cell = getPreviousCell()
asctrl -> cell: cell.getExtension(StylableCell)
asctrl -> auo: create(cell,stylableCell)
asctrl -> networkserv: getConnectedList();
asctrl -> networkserv: send(AutomaticUpdateObject)
ui -> User : success



@enduml
