@startuml doc-files/File_sharing_ReceiverFileLists.png
actor User
  participant "<Class>FileSharingController" as ctrl
  participant "<Class>\nFileSharingAssembler" as asm
  participant "<Class-Thread>FileSharingBroadCastReceiver" as fbc
  participant "Network" as net
  participant "FileList" as flist
  participant "FileInfo" as finfo
  ctrl -> asm : showNetworkFileList()
  asm -> fbc : theNetFileList=receiveFiles()
  activate fbc
  fbc -> flist : networkList=getNetworkList()
  loop 
  net --> fbc : receive(file)
  fbc -> finfo : fl=create(file)
  fbc -> flist : networkList.add(fl)
  flist -> flist : if exist(fl) updateTimeStamp(fl) else add(fl)
  deactivate fbc
  
  end 
  
@enduml