  @startuml doc-files/comments_extension_uc_realization1.png
  actor User 
  participant "<<analysis>>\nContactUI" as UI
  participant "<<analysis>>\nContactController" as controller
  participant "<<analysis>>\nContact" as contact
  participant "<<analysis>>\nContactPersistence" as contactper
  User -> UI : createContact()
  activate UI
  UI -> controller : createContact()
deactivate UI 
activate controller 
controller -> contact: createContact()
deactivate controller  
activate UI
    UI -> User : askFirstName()
    User -> UI : insertFirstName()
    UI -> User : askLastName()
    User -> UI : insertLastName()
    UI -> User : askPhoto()
    User -> UI : insertPhoto()

  UI -> controller : insertNewContact(firstName,lastName,photo)
  deactivate UI
  User -> UI : enterCommentText()
  activate UI
  UI -> controller : setCellComment()
  activate controller
  controller -> contactpers : setComment()
  deactivate controller
  deactivate UI
  @enduml
