  @startuml doc-files/Ipc05_1_analysis_start_chat.png
    actor User
    participant "<<analysis>>\nStartChatUI" as CHATUI
    participant "<<analysis>>\nStartChatController" as startChatCtrl
    participant "<<analysis>>\nChatService\n(singleton)" as Mang
    participant "<<analysis>>\nStartConn" as startcomm
    User -> CHATUI : create()
    activate CHATUI
    CHATUI -> startChatCtrl : create()
    activate startChatCtrl
    startChatCtrl -> Mang : new()
    activate Mang    
    Mang -> startcomm : start()
    activate startcomm
    loop !Thread finished
    startcomm->startcomm:receiveMessage()
    end



  @enduml